VHDL/DivFreq/simulation/qsim/DivFreq.msim.vcd
$comment
	File created using the following command:
		vcd file DivFreq.msim.vcd -direction
$end
$date
	Thu Mar 07 11:10:10 2024
$end
$version
	ModelSim Version 10.1d
$end
$timescale
	1ps
$end
$scope module DivFreq_vlg_vec_tst $end
$var reg 1 ! clk $end
$var wire 1 " out1 $end
$var wire 1 # out2 $end
$var wire 1 $ sampler $end
$scope module i1 $end
$var wire 1 % gnd $end
$var wire 1 & vcc $end
$var wire 1 ' unknown $end
$var tri1 1 ( devclrn $end
$var tri1 1 ) devpor $end
$var tri1 1 * devoe $end
$var wire 1 + out1~output_o $end
$var wire 1 , out2~output_o $end
$var wire 1 - clk~input_o $end
$var wire 1 . clk~inputclkctrl_outclk $end
$var wire 1 / contador1[2]~1_combout $end
$var wire 1 0 contador1~2_combout $end
$var wire 1 1 contador1~0_combout $end
$var wire 1 2 out1~0_combout $end
$var wire 1 3 out1~reg0_q $end
$var wire 1 4 contador2~0_combout $end
$var wire 1 5 reloj:contador2[0]~q $end
$var wire 1 6 Add1~0_combout $end
$var wire 1 7 reloj:contador2[2]~q $end
$var wire 1 8 contador2~1_combout $end
$var wire 1 9 reloj:contador2[1]~q $end
$var wire 1 : out2~0_combout $end
$var wire 1 ; out2~reg0_q $end
$var wire 1 < contador1 [2] $end
$var wire 1 = contador1 [1] $end
$var wire 1 > contador1 [0] $end
$upscope $end
$upscope $end
$enddefinitions $end
#0
$dumpvars
0!
0"
0#
x$
0%
1&
x'
1(
1)
1*
0+
0,
0-
0.
0/
00
11
02
03
14
05
06
07
08
09
0:
0;
0>
0=
0<
$end
#10000
1!
1-
1.
0$
15
1>
18
04
01
10
#20000
0!
0-
0.
1$
#30000
1!
1-
1.
0$
19
05
0>
1=
1:
08
12
00
#40000
0!
0-
0.
1$
#50000
1!
1-
1.
0$
09
0=
1;
13
14
11
1,
1+
1#
1"
#60000
0!
0-
0.
1$
#70000
1!
1-
1.
0$
15
1>
18
04
01
10
#80000
0!
0-
0.
1$
#90000
1!
1-
1.
0$
19
05
0>
1=
0:
08
02
00
#100000
0!
0-
0.
1$
#110000
1!
1-
1.
0$
09
0=
0;
03
14
11
0,
0+
0#
0"
#120000
0!
0-
0.
1$
#130000
1!
1-
1.
0$
15
1>
18
04
01
10
#140000
0!
0-
0.
1$
#150000
1!
1-
1.
0$
19
05
0>
1=
1:
08
12
00
#160000
0!
0-
0.
1$
#170000
1!
1-
1.
0$
09
0=
1;
13
14
11
1,
1+
1#
1"
#180000
0!
0-
0.
1$
#190000
1!
1-
1.
0$
15
1>
18
04
01
10
#200000
0!
0-
0.
1$
#210000
1!
1-
1.
0$
19
05
0>
1=
0:
08
02
00
#220000
0!
0-
0.
1$
#230000
1!
1-
1.
0$
09
0=
0;
03
14
11
0,
0+
0#
0"
#240000
0!
0-
0.
1$
#250000
1!
1-
1.
0$
15
1>
18
04
01
10
#260000
0!
0-
0.
1$
#270000
1!
1-
1.
0$
19
05
0>
1=
1:
08
12
00
#280000
0!
0-
0.
1$
#290000
1!
1-
1.
0$
09
0=
1;
13
14
11
1,
1+
1#
1"
#300000
0!
0-
0.
1$
#310000
1!
1-
1.
0$
15
1>
18
04
01
10
#320000
0!
0-
0.
1$
#330000
1!
1-
1.
0$
19
05
0>
1=
0:
08
02
00
#340000
0!
0-
0.
1$
#350000
1!
1-
1.
0$
09
0=
0;
03
14
11
0,
0+
0#
0"
#360000
0!
0-
0.
1$
#370000
1!
1-
1.
0$
15
1>
18
04
01
10
#380000
0!
0-
0.
1$
#390000
1!
1-
1.
0$
19
05
0>
1=
1:
08
12
00
#400000
0!
0-
0.
1$
#410000
1!
1-
1.
0$
09
0=
1;
13
14
11
1,
1+
1#
1"
#420000
0!
0-
0.
1$
#430000
1!
1-
1.
0$
15
1>
18
04
01
10
#440000
0!
0-
0.
1$
#450000
1!
1-
1.
0$
19
05
0>
1=
0:
08
02
00
#460000
0!
0-
0.
1$
#470000
1!
1-
1.
0$
09
0=
0;
03
14
11
0,
0+
0#
0"
#480000
0!
0-
0.
1$
#490000
1!
1-
1.
0$
15
1>
18
04
01
10
#500000
0!
0-
0.
1$
#510000
1!
1-
1.
0$
19
05
0>
1=
1:
08
12
00
#520000
0!
0-
0.
1$
#530000
1!
1-
1.
0$
09
0=
1;
13
14
11
1,
1+
1#
1"
#540000
0!
0-
0.
1$
#550000
1!
1-
1.
0$
15
1>
18
04
01
10
#560000
0!
0-
0.
1$
#570000
1!
1-
1.
0$
19
05
0>
1=
0:
08
02
00
#580000
0!
0-
0.
1$
#590000
1!
1-
1.
0$
09
0=
0;
03
14
11
0,
0+
0#
0"
#600000
0!
0-
0.
1$
#610000
1!
1-
1.
0$
15
1>
18
04
01
10
#620000
0!
0-
0.
1$
#630000
1!
1-
1.
0$
19
05
0>
1=
1:
08
12
00
#640000
0!
0-
0.
1$
#650000
1!
1-
1.
0$
09
0=
1;
13
14
11
1,
1+
1#
1"
#660000
0!
0-
0.
1$
#670000
1!
1-
1.
0$
15
1>
18
04
01
10
#680000
0!
0-
0.
1$
#690000
1!
1-
1.
0$
19
05
0>
1=
0:
08
02
00
#700000
0!
0-
0.
1$
#710000
1!
1-
1.
0$
09
0=
0;
03
14
11
0,
0+
0#
0"
#720000
0!
0-
0.
1$
#730000
1!
1-
1.
0$
15
1>
18
04
01
10
#740000
0!
0-
0.
1$
#750000
1!
1-
1.
0$
19
05
0>
1=
1:
08
12
00
#760000
0!
0-
0.
1$
#770000
1!
1-
1.
0$
09
0=
1;
13
14
11
1,
1+
1#
1"
#780000
0!
0-
0.
1$
#790000
1!
1-
1.
0$
15
1>
18
04
01
10
#800000
0!
0-
0.
1$
#810000
1!
1-
1.
0$
19
05
0>
1=
0:
08
02
00
#820000
0!
0-
0.
1$
#830000
1!
1-
1.
0$
09
0=
0;
03
14
11
0,
0+
0#
0"
#840000
0!
0-
0.
1$
#850000
1!
1-
1.
0$
15
1>
18
04
01
10
#860000
0!
0-
0.
1$
#870000
1!
1-
1.
0$
19
05
0>
1=
1:
08
12
00
#880000
0!
0-
0.
1$
#890000
1!
1-
1.
0$
09
0=
1;
13
14
11
1,
1+
1#
1"
#900000
0!
0-
0.
1$
#910000
1!
1-
1.
0$
15
1>
18
04
01
10
#920000
0!
0-
0.
1$
#930000
1!
1-
1.
0$
19
05
0>
1=
0:
08
02
00
#940000
0!
0-
0.
1$
#950000
1!
1-
1.
0$
09
0=
0;
03
14
11
0,
0+
0#
0"
#960000
0!
0-
0.
1$
#970000
1!
1-
1.
0$
15
1>
18
04
01
10
#980000
0!
0-
0.
1$
#990000
1!
1-
1.
0$
19
05
0>
1=
1:
08
12
00
