VHDL/DivFreq50/simulation/qsim/DivFreq50.msim.vcd
$comment
	File created using the following command:
		vcd file DivFreq50.msim.vcd -direction
$end
$date
	Thu Mar 07 21:59:49 2024
$end
$version
	ModelSim Version 10.1d
$end
$timescale
	1ps
$end
$scope module DivFreq50_vlg_vec_tst $end
$var reg 1 ! clockDiv $end
$var reg 1 " resetDiv $end
$var wire 1 # divided_clk $end
$var wire 1 $ sampler $end
$scope module i1 $end
$var wire 1 % gnd $end
$var wire 1 & vcc $end
$var wire 1 ' unknown $end
$var tri1 1 ( devclrn $end
$var tri1 1 ) devpor $end
$var tri1 1 * devoe $end
$var wire 1 + divided_clk~output_o $end
$var wire 1 , clockDiv~input_o $end
$var wire 1 - clockDiv~inputclkctrl_outclk $end
$var wire 1 . Add0~0_combout $end
$var wire 1 / resetDiv~input_o $end
$var wire 1 0 resetDiv~inputclkctrl_outclk $end
$var wire 1 1 Add0~1 $end
$var wire 1 2 Add0~2_combout $end
$var wire 1 3 Add0~3 $end
$var wire 1 4 Add0~4_combout $end
$var wire 1 5 Add0~5 $end
$var wire 1 6 Add0~6_combout $end
$var wire 1 7 Add0~7 $end
$var wire 1 8 Add0~8_combout $end
$var wire 1 9 Add0~9 $end
$var wire 1 : Add0~10_combout $end
$var wire 1 ; Add0~11 $end
$var wire 1 < Add0~12_combout $end
$var wire 1 = Equal0~6_combout $end
$var wire 1 > Add0~13 $end
$var wire 1 ? Add0~14_combout $end
$var wire 1 @ cuenta~11_combout $end
$var wire 1 A Add0~15 $end
$var wire 1 B Add0~16_combout $end
$var wire 1 C Add0~17 $end
$var wire 1 D Add0~18_combout $end
$var wire 1 E Add0~19 $end
$var wire 1 F Add0~20_combout $end
$var wire 1 G Equal0~5_combout $end
$var wire 1 H Equal0~7_combout $end
$var wire 1 I Add0~21 $end
$var wire 1 J Add0~22_combout $end
$var wire 1 K Add0~23 $end
$var wire 1 L Add0~24_combout $end
$var wire 1 M cuenta~10_combout $end
$var wire 1 N Add0~25 $end
$var wire 1 O Add0~26_combout $end
$var wire 1 P cuenta~9_combout $end
$var wire 1 Q Add0~27 $end
$var wire 1 R Add0~28_combout $end
$var wire 1 S cuenta~8_combout $end
$var wire 1 T Add0~29 $end
$var wire 1 U Add0~30_combout $end
$var wire 1 V cuenta~7_combout $end
$var wire 1 W Add0~31 $end
$var wire 1 X Add0~32_combout $end
$var wire 1 Y Add0~33 $end
$var wire 1 Z Add0~34_combout $end
$var wire 1 [ cuenta~6_combout $end
$var wire 1 \ Add0~35 $end
$var wire 1 ] Add0~36_combout $end
$var wire 1 ^ Add0~37 $end
$var wire 1 _ Add0~38_combout $end
$var wire 1 ` cuenta~5_combout $end
$var wire 1 a Add0~39 $end
$var wire 1 b Add0~40_combout $end
$var wire 1 c cuenta~4_combout $end
$var wire 1 d Add0~41 $end
$var wire 1 e Add0~42_combout $end
$var wire 1 f cuenta~3_combout $end
$var wire 1 g Add0~43 $end
$var wire 1 h Add0~44_combout $end
$var wire 1 i cuenta~2_combout $end
$var wire 1 j Equal0~1_combout $end
$var wire 1 k Equal0~2_combout $end
$var wire 1 l Equal0~3_combout $end
$var wire 1 m Add0~45 $end
$var wire 1 n Add0~46_combout $end
$var wire 1 o cuenta~1_combout $end
$var wire 1 p Add0~47 $end
$var wire 1 q Add0~48_combout $end
$var wire 1 r Add0~49 $end
$var wire 1 s Add0~50_combout $end
$var wire 1 t cuenta~0_combout $end
$var wire 1 u Equal0~0_combout $end
$var wire 1 v Equal0~4_combout $end
$var wire 1 w Equal0~8_combout $end
$var wire 1 x salida~0_combout $end
$var wire 1 y salida~q $end
$var wire 1 z cuenta [25] $end
$var wire 1 { cuenta [24] $end
$var wire 1 | cuenta [23] $end
$var wire 1 } cuenta [22] $end
$var wire 1 ~ cuenta [21] $end
$var wire 1 !! cuenta [20] $end
$var wire 1 "! cuenta [19] $end
$var wire 1 #! cuenta [18] $end
$var wire 1 $! cuenta [17] $end
$var wire 1 %! cuenta [16] $end
$var wire 1 &! cuenta [15] $end
$var wire 1 '! cuenta [14] $end
$var wire 1 (! cuenta [13] $end
$var wire 1 )! cuenta [12] $end
$var wire 1 *! cuenta [11] $end
$var wire 1 +! cuenta [10] $end
$var wire 1 ,! cuenta [9] $end
$var wire 1 -! cuenta [8] $end
$var wire 1 .! cuenta [7] $end
$var wire 1 /! cuenta [6] $end
$var wire 1 0! cuenta [5] $end
$var wire 1 1! cuenta [4] $end
$var wire 1 2! cuenta [3] $end
$var wire 1 3! cuenta [2] $end
$var wire 1 4! cuenta [1] $end
$var wire 1 5! cuenta [0] $end
$upscope $end
$upscope $end
$enddefinitions $end
#0
$dumpvars
0!
0"
0#
x$
0%
1&
x'
1(
1)
1*
0+
0,
0-
1.
0/
00
01
02
13
04
05
06
17
08
09
0:
1;
0<
0=
0>
0?
0@
1A
0B
0C
0D
1E
0F
1G
0H
0I
0J
1K
0L
0M
0N
0O
0P
1Q
0R
0S
0T
0U
0V
1W
0X
0Y
0Z
0[
1\
0]
0^
0_
0`
1a
0b
0c
0d
0e
0f
1g
0h
0i
0j
0k
0l
0m
0n
0o
1p
0q
0r
0s
0t
0u
0v
0w
0x
0y
05!
04!
03!
02!
01!
00!
0/!
0.!
0-!
0,!
0+!
0*!
0)!
0(!
0'!
0&!
0%!
0$!
0#!
0"!
0!!
0~
0}
0|
0{
0z
$end
#5000
1!
1,
1-
0$
15!
11
0.
12
#10000
0!
0,
0-
1$
#15000
1!
1,
1-
0$
14!
05!
03
02
01
1.
14
13
12
04
#20000
0!
0,
0-
1$
#25000
1!
1,
1-
0$
15!
11
0.
03
02
14
#30000
0!
0,
0-
1$
#35000
1!
1,
1-
0$
13!
04!
05!
15
04
13
12
01
1.
16
05
14
02
06
#40000
0!
0,
0-
1$
#45000
1!
1,
1-
0$
15!
11
0.
12
#50000
0!
0,
0-
1$
#55000
1!
1,
1-
0$
14!
05!
1H
03
02
01
1.
15
04
13
12
16
05
14
06
#60000
0!
0,
0-
1$
#65000
1!
1,
1-
0$
15!
11
0.
03
02
15
04
16
#70000
0!
0,
0-
1$
#75000
1!
1,
1-
0$
12!
03!
04!
05!
07
06
0H
05
14
13
12
01
1.
18
17
16
04
02
08
#80000
0!
0,
0-
1$
#85000
1!
1,
1-
0$
15!
11
0.
12
#90000
0!
0,
0-
1$
#95000
1!
1,
1-
0$
14!
05!
03
02
01
1.
14
13
12
04
#100000
0!
0,
0-
1$
#105000
1!
1,
1-
0$
15!
11
0.
03
02
14
#110000
0!
0,
0-
1$
#115000
1!
1,
1-
0$
13!
04!
05!
15
04
13
12
01
1.
07
06
05
14
02
18
17
16
08
#120000
0!
0,
0-
1$
#125000
1!
1,
1-
0$
15!
11
0.
12
#130000
0!
0,
0-
1$
#135000
1!
1,
1-
0$
14!
05!
1H
03
02
01
1.
15
04
13
12
07
06
05
14
18
17
16
08
#140000
0!
0,
0-
1$
#145000
1!
1,
1-
0$
15!
11
0.
03
02
15
04
07
06
18
#150000
0!
0,
0-
1$
#155000
1!
1,
1-
0$
11!
02!
03!
04!
05!
19
08
17
16
0H
05
14
13
12
01
1.
1:
09
18
06
04
02
0:
#160000
0!
0,
0-
1$
#165000
1!
1,
1-
0$
15!
11
0.
12
#170000
0!
0,
0-
1$
#175000
1!
1,
1-
0$
14!
05!
03
02
01
1.
14
13
12
04
#180000
0!
0,
0-
1$
#185000
1!
1,
1-
0$
15!
11
0.
03
02
14
#190000
0!
0,
0-
1$
#195000
1!
1,
1-
0$
13!
04!
05!
15
04
13
12
01
1.
16
05
14
02
06
#200000
0!
0,
0-
1$
#205000
1!
1,
1-
0$
15!
11
0.
12
#210000
0!
0,
0-
1$
#215000
1!
1,
1-
0$
14!
05!
1H
03
02
01
1.
15
04
13
12
16
05
14
06
#220000
0!
0,
0-
1$
#225000
1!
1,
1-
0$
15!
11
0.
03
02
15
04
16
#230000
0!
0,
0-
1$
#235000
1!
1,
1-
0$
12!
03!
04!
05!
07
06
0H
05
14
13
12
01
1.
19
08
17
16
04
02
1:
09
18
0:
#240000
0!
0,
0-
1$
#245000
1!
1,
1-
0$
15!
11
0.
12
#250000
0!
0,
0-
1$
#255000
1!
1,
1-
0$
14!
05!
03
02
01
1.
14
13
12
04
#260000
0!
0,
0-
1$
#265000
1!
1,
1-
0$
15!
11
0.
03
02
14
#270000
0!
0,
0-
1$
#275000
1!
1,
1-
0$
13!
04!
05!
15
04
13
12
01
1.
07
06
05
14
02
19
08
17
16
1:
09
18
0:
#280000
0!
0,
0-
1$
#285000
1!
1,
1-
0$
15!
11
0.
12
#290000
0!
0,
0-
1$
#295000
1!
1,
1-
0$
14!
05!
1H
03
02
01
1.
15
04
13
12
07
06
05
14
19
08
17
16
1:
09
18
0:
#300000
0!
0,
0-
1$
#305000
1!
1,
1-
0$
15!
11
0.
03
02
15
04
07
06
19
08
1:
#310000
0!
0,
0-
1$
#315000
1!
1,
1-
0$
10!
01!
02!
03!
04!
05!
0;
0:
09
18
17
16
0H
05
14
13
12
01
1.
1<
1;
1:
08
06
04
02
0<
#320000
0!
0,
0-
1$
#325000
1!
1,
1-
0$
15!
11
0.
12
#330000
0!
0,
0-
1$
#335000
1!
1,
1-
0$
14!
05!
03
02
01
1.
14
13
12
04
#340000
0!
0,
0-
1$
#345000
1!
1,
1-
0$
15!
11
0.
03
02
14
#350000
0!
0,
0-
1$
#355000
1!
1,
1-
0$
13!
04!
05!
15
04
13
12
01
1.
16
05
14
02
06
#360000
0!
0,
0-
1$
#365000
1!
1,
1-
0$
15!
11
0.
12
#370000
0!
0,
0-
1$
#375000
1!
1,
1-
0$
14!
05!
1H
03
02
01
1.
15
04
13
12
16
05
14
06
#380000
0!
0,
0-
1$
#385000
1!
1,
1-
0$
15!
11
0.
03
02
15
04
16
#390000
0!
0,
0-
1$
#395000
1!
1,
1-
0$
12!
03!
04!
05!
07
06
0H
05
14
13
12
01
1.
18
17
16
04
02
08
#400000
0!
0,
0-
1$
#405000
1!
1,
1-
0$
15!
11
0.
12
#410000
0!
0,
0-
1$
#415000
1!
1,
1-
0$
14!
05!
03
02
01
1.
14
13
12
04
#420000
0!
0,
0-
1$
#425000
1!
1,
1-
0$
15!
11
0.
03
02
14
#430000
0!
0,
0-
1$
#435000
1!
1,
1-
0$
13!
04!
05!
15
04
13
12
01
1.
07
06
05
14
02
18
17
16
08
#440000
0!
0,
0-
1$
#445000
1!
1,
1-
0$
15!
11
0.
12
#450000
0!
0,
0-
1$
#455000
1!
1,
1-
0$
14!
05!
1H
03
02
01
1.
15
04
13
12
07
06
05
14
18
17
16
08
#460000
0!
0,
0-
1$
#465000
1!
1,
1-
0$
15!
11
0.
03
02
15
04
07
06
18
#470000
0!
0,
0-
1$
#475000
1!
1,
1-
0$
11!
02!
03!
04!
05!
19
08
17
16
0H
05
14
13
12
01
1.
0;
0:
09
18
06
04
02
1<
1;
1:
0<
#480000
0!
0,
0-
1$
#485000
1!
1,
1-
0$
15!
11
0.
12
#490000
0!
0,
0-
1$
#495000
1!
1,
1-
0$
14!
05!
03
02
01
1.
14
13
12
04
#500000
0!
0,
0-
1$
#505000
1!
1,
1-
0$
15!
11
0.
03
02
14
#510000
0!
0,
0-
1$
#515000
1!
1,
1-
0$
13!
04!
05!
15
04
13
12
01
1.
16
05
14
02
06
#520000
0!
0,
0-
1$
#525000
1!
1,
1-
0$
15!
11
0.
12
#530000
0!
0,
0-
1$
#535000
1!
1,
1-
0$
14!
05!
1H
03
02
01
1.
15
04
13
12
16
05
14
06
#540000
0!
0,
0-
1$
#545000
1!
1,
1-
0$
15!
11
0.
03
02
15
04
16
#550000
0!
0,
0-
1$
#555000
1!
1,
1-
0$
12!
03!
04!
05!
07
06
0H
05
14
13
12
01
1.
19
08
17
16
04
02
0;
0:
09
18
1<
1;
1:
0<
#560000
0!
0,
0-
1$
#565000
1!
1,
1-
0$
15!
11
0.
12
#570000
0!
0,
0-
1$
#575000
1!
1,
1-
0$
14!
05!
03
02
01
1.
14
13
12
04
#580000
0!
0,
0-
1$
#585000
1!
1,
1-
0$
15!
11
0.
03
02
14
#590000
0!
0,
0-
1$
#595000
1!
1,
1-
0$
13!
04!
05!
15
04
13
12
01
1.
07
06
05
14
02
19
08
17
16
0;
0:
09
18
1<
1;
1:
0<
#600000
0!
0,
0-
1$
#605000
1!
1,
1-
0$
15!
11
0.
12
#610000
0!
0,
0-
1$
#615000
1!
1,
1-
0$
14!
05!
1H
03
02
01
1.
15
04
13
12
07
06
05
14
19
08
17
16
0;
0:
09
18
1<
1;
1:
0<
#620000
0!
0,
0-
1$
#625000
1!
1,
1-
0$
15!
11
0.
03
02
15
04
07
06
19
08
0;
0:
1<
#630000
0!
0,
0-
1$
#635000
1!
1,
1-
0$
1/!
00!
01!
02!
03!
04!
05!
1>
0<
1;
1:
09
18
17
16
0H
05
14
13
12
01
1.
1?
0>
1<
0:
08
06
04
02
1@
0?
0@
#640000
0!
0,
0-
1$
#645000
1!
1,
1-
0$
15!
11
0.
12
#650000
0!
0,
0-
1$
#655000
1!
1,
1-
0$
14!
05!
03
02
01
1.
14
13
12
04
#660000
0!
0,
0-
1$
#665000
1!
1,
1-
0$
15!
11
0.
03
02
14
#670000
0!
0,
0-
1$
#675000
1!
1,
1-
0$
13!
04!
05!
15
04
13
12
01
1.
16
05
14
02
06
#680000
0!
0,
0-
1$
#685000
1!
1,
1-
0$
15!
11
0.
12
#690000
0!
0,
0-
1$
#695000
1!
1,
1-
0$
14!
05!
1H
03
02
01
1.
15
04
13
12
16
05
14
06
#700000
0!
0,
0-
1$
#705000
1!
1,
1-
0$
15!
11
0.
03
02
15
04
16
#710000
0!
0,
0-
1$
#715000
1!
1,
1-
0$
12!
03!
04!
05!
07
06
0H
05
14
13
12
01
1.
18
17
16
04
02
08
#720000
0!
0,
0-
1$
#725000
1!
1,
1-
0$
15!
11
0.
12
#730000
0!
0,
0-
1$
#735000
1!
1,
1-
0$
14!
05!
03
02
01
1.
14
13
12
04
#740000
0!
0,
0-
1$
#745000
1!
1,
1-
0$
15!
11
0.
03
02
14
#750000
0!
0,
0-
1$
#755000
1!
1,
1-
0$
13!
04!
05!
15
04
13
12
01
1.
07
06
05
14
02
18
17
16
08
#760000
0!
0,
0-
1$
#765000
1!
1,
1-
0$
15!
11
0.
12
#770000
0!
0,
0-
1$
#775000
1!
1,
1-
0$
14!
05!
1H
03
02
01
1.
15
04
13
12
07
06
05
14
18
17
16
08
#780000
0!
0,
0-
1$
#785000
1!
1,
1-
0$
15!
11
0.
03
02
15
04
07
06
18
#790000
0!
0,
0-
1$
#795000
1!
1,
1-
0$
11!
02!
03!
04!
05!
19
08
17
16
0H
05
14
13
12
01
1.
1:
09
18
06
04
02
0:
#800000
0!
0,
0-
1$
#805000
1!
1,
1-
0$
15!
11
0.
12
#810000
0!
0,
0-
1$
#815000
1!
1,
1-
0$
14!
05!
03
02
01
1.
14
13
12
04
#820000
0!
0,
0-
1$
#825000
1!
1,
1-
0$
15!
11
0.
03
02
14
#830000
0!
0,
0-
1$
#835000
1!
1,
1-
0$
13!
04!
05!
15
04
13
12
01
1.
16
05
14
02
06
#840000
0!
0,
0-
1$
#845000
1!
1,
1-
0$
15!
11
0.
12
#850000
0!
0,
0-
1$
#855000
1!
1,
1-
0$
14!
05!
1H
03
02
01
1.
15
04
13
12
16
05
14
06
#860000
0!
0,
0-
1$
#865000
1!
1,
1-
0$
15!
11
0.
03
02
15
04
16
#870000
0!
0,
0-
1$
#875000
1!
1,
1-
0$
12!
03!
04!
05!
07
06
0H
05
14
13
12
01
1.
19
08
17
16
04
02
1:
09
18
0:
#880000
0!
0,
0-
1$
#885000
1!
1,
1-
0$
15!
11
0.
12
#890000
0!
0,
0-
1$
#895000
1!
1,
1-
0$
14!
05!
03
02
01
1.
14
13
12
04
#900000
0!
0,
0-
1$
#905000
1!
1,
1-
0$
15!
11
0.
03
02
14
#910000
0!
0,
0-
1$
#915000
1!
1,
1-
0$
13!
04!
05!
15
04
13
12
01
1.
07
06
05
14
02
19
08
17
16
1:
09
18
0:
#920000
0!
0,
0-
1$
#925000
1!
1,
1-
0$
15!
11
0.
12
#930000
0!
0,
0-
1$
#935000
1!
1,
1-
0$
14!
05!
1H
03
02
01
1.
15
04
13
12
07
06
05
14
19
08
17
16
1:
09
18
0:
#940000
0!
0,
0-
1$
#945000
1!
1,
1-
0$
15!
11
0.
03
02
15
04
07
06
19
08
1:
#950000
0!
0,
0-
1$
#955000
1!
1,
1-
0$
10!
01!
02!
03!
04!
05!
0;
0:
09
18
17
16
0H
05
14
13
12
01
1.
1>
0<
1;
1:
08
06
04
02
1?
0>
1<
1@
0?
0@
#960000
0!
0,
0-
1$
#965000
1!
1,
1-
0$
15!
11
0.
12
#970000
0!
0,
0-
1$
#975000
1!
1,
1-
0$
14!
05!
03
02
01
1.
14
13
12
04
#980000
0!
0,
0-
1$
#985000
1!
1,
1-
0$
15!
11
0.
03
02
14
#990000
0!
0,
0-
1$
#995000
1!
1,
1-
0$
13!
04!
05!
15
04
13
12
01
1.
16
05
14
02
06
